Differential expression report
…
#png(filename=glue("{output_fig_dir}/{sample}_track.png"), width = 18, height = 4, units="in", res=300, pointsize=4)
#Cairo(800,400,file=paste(output_file, ".svg", sep=""),type="svg",bg="transparent",pointsize=8, units="px",dpi=400)
#svg(filename=glue("{output_fig_dir}/{sample}_track.svg"), width = 18, height = 4)

source('de-utils.R')
plot_gex_cnv(tt, 
             df_cnv, 
             clones = c(clonelabel1,clonelabel2),
             title
             #paste0(clonelabel1,"_",clonelabel2),
             #additional_genes = genes_to_plot
             )

## [1] "The labeled genes"
## # A tibble: 78 x 11
##    gene_symbol chr    start    end  logFC logCPM     F  PValue   FDR
##    <chr>       <fct>  <int>  <int>  <dbl>  <dbl> <dbl>   <dbl> <dbl>
##  1 CD99        X     2.61e6 2.66e6  1.27    8.74  8.56 0.00624 0.453
##  2 TNFRSF12A   16    3.07e6 3.07e6 -1.93    8.87  6.23 0.0179  0.797
##  3 RALA        7     3.97e7 3.97e7 -1.26    8.83  5.06 0.0315  0.797
##  4 PSMB1       6     1.71e8 1.71e8 -1.06    8.94  9.87 0.00359 0.313
##  5 RNF19A      8     1.01e8 1.01e8  1.13    9.02  4.06 0.0524  0.797
##  6 SERPINB3    18    6.13e7 6.13e7 -5.48    8.55  4.30 0.0476  0.797
##  7 VPS35       16    4.67e7 4.67e7 -1.29    8.44  5.19 0.0295  0.797
##  8 MRPS34      16    1.82e6 1.82e6 -0.926   8.42  3.96 0.0551  0.797
##  9 ACTB        7     5.57e6 5.60e6  0.662  12.9   4.47 0.0423  0.797
## 10 GSTP1       11    6.74e7 6.74e7 -0.836  10.8   4.32 0.0458  0.797
## #  with 68 more rows, and 2 more variables: ensembl_gene_id <chr>,
## #   position <dbl>
…
